{
  "platform": "work",
  "root test folder": "/home/antoneryomin/tensorflow/tensorflow/UnitTests",
  "pictures test folder": "pictures_for_tests",
  "temporary test files folder": "temporary files"

}
